module go-server

go 1.17

require (
	github.com/gin-contrib/sse v0.1.0 // indirect
	github.com/gin-gonic/gin v1.7.4
	github.com/go-playground/locales v0.13.0 // indirect
	github.com/go-playground/universal-translator v0.17.0 // indirect
	github.com/go-playground/validator/v10 v10.4.1 // indirect
	github.com/golang/protobuf v1.3.3 // indirect
	github.com/gorilla/mux v1.8.0 // indirect
	github.com/jinzhu/gorm v1.9.16 // indirect
	github.com/jinzhu/inflection v1.0.0 // indirect
	github.com/jinzhu/now v1.1.2 // indirect
	github.com/joho/godotenv v1.3.0 // indirect
	github.com/json-iterator/go v1.1.9 // indirect
	github.com/leodido/go-urn v1.2.0 // indirect
	github.com/lib/pq v1.10.3 // indirect
	github.com/mattn/go-isatty v0.0.12 // indirect
	github.com/modern-go/concurrent v0.0.0-20180228061459-e0a39a4cb421 // indirect
	github.com/modern-go/reflect2 v0.0.0-20180701023420-4b7aa43c6742 // indirect
	github.com/rs/cors v1.8.0 // indirect
	github.com/shopspring/decimal v1.2.0
	github.com/sirupsen/logrus v1.8.1 // indirect
	github.com/ugorji/go/codec v1.1.7 // indirect
	go.mongodb.org/mongo-driver v1.7.2
	golang.org/x/crypto v0.0.0-20200622213623-75b288015ac9 // indirect
	golang.org/x/sys v0.0.0-20200323222414-85ca7c5b95cd // indirect
	gopkg.in/yaml.v2 v2.2.8 // indirect
	gorm.io/gorm v1.21.15 // indirect
)

require (
	github.com/bxcodec/faker v2.0.1+incompatible // indirect
	github.com/gosimple/slug v1.10.0 // indirect
	github.com/gosimple/unidecode v1.0.0 // indirect
)
